[
  {
    "ingredientPattern": "H,P,C",
    "requiresTrait": "cook",
    "shapeless": true,
    "ingredients": {
      "P": {
        "type": "item",
        "code": "game:metalplate-copper",
        "quantity": 1
      },
      "H": {
        "type": "item",
        "code": "game:hammer-*",
        "isTool": true
      },
      "C": {
        "type": "block",
        "code": "game:claypot-burned"
      }
    },
    "width": 1,
    "height": 3,
    "averageDurability": false,
    "output": {
      "type": "block",
      "code": "divisionoflabor:coppercookingpot-burned",
      "quantity": 1
    }
  },
  {
    "ingredientPattern": "H,P",
    "requiresTrait": "cook",
    "shapeless": true,
    "ingredients": {
      "P": {
        "type": "item",
        "code": "game:metalplate-copper",
        "quantity": 2
      },
      "H": {
        "type": "item",
        "code": "game:hammer-*",
        "isTool": true
      }
    },
    "width": 1,
    "height": 2,
    "averageDurability": false,
    "output": {
      "type": "block",
      "code": "divisionoflabor:copperfryingpan-burned",
      "quantity": 1
    }
  }
]