{
  "type": "content",
  "modid": "divisionoflabor",
  "name": "Division of Labor",
  "description" : "Adds new classes and class items. A continuation of the More Classes mod by Mr1k3",
  "authors": ["IronPhildo69"],
  "version": "1.0.6",
  "RequiredOnClient": true,
  "RequiredOnServer": true,
  "dependencies": {
    "game": "1.18.7"
  }
}